{
  "project_info": {
    "project_number": "1374402210",
    "firebase_url": "https://covid-719f4.firebaseio.com",
    "project_id": "covid-719f4",
    "storage_bucket": "covid-719f4.appspot.com"
  },
  "client": [
    {
      "client_info": {
        "mobilesdk_app_id": "1:1374402210:android:ae6367c0884c7da55b49fb",
        "android_client_info": {
          "package_name": "com.COVID.mycovid_diary"
        }
      },
      "oauth_client": [
        {
          "client_id": "1374402210-ou62h3ihsa4uh28aj1j1svaasfjss62c.apps.googleusercontent.com",
          "client_type": 1,
          "android_info": {
            "package_name": "com.COVID.mycovid_diary",
            "certificate_hash": "9a61bf707a1cfe89db570c04ab1ea2feb98742a1"
          }
        },
        {
          "client_id": "1374402210-d4svrvf42l8cdkdjf2em6dia7rd8q8hc.apps.googleusercontent.com",
          "client_type": 3
        }
      ],
      "api_key": [
        {
          "current_key": "AIzaSyDp1qQCBAmuzIX6LYWe7WIVus2np87qoDM"
        }
      ],
      "services": {
        "appinvite_service": {
          "other_platform_oauth_client": [
            {
              "client_id": "1374402210-d4svrvf42l8cdkdjf2em6dia7rd8q8hc.apps.googleusercontent.com",
              "client_type": 3
            }
          ]
        }
      }
    }
  ],
  "configuration_version": "1"
}